-------------------------------------------------------------------------------
Test set: com.bosssoft.hr.train.j2se.basic.example.collection.TreeSetExampleImplementTest
-------------------------------------------------------------------------------
Tests run: 1, Failures: 0, Errors: 0, Skipped: 0, Time elapsed: 0.004 sec
